<svg xmlns="http://www.w3.org/2000/svg" xmlns:xlink="http://www.w3.org/1999/xlink" width="52" height="52" viewBox="0 0 52 52">
    <defs>
        <path id="a" d="M.006 51.77V.1H51.9v51.67z"/>
    </defs>
    <g fill="none" fill-rule="evenodd">
        <mask id="b" fill="#fff">
            <use xlink:href="#a"/>
        </mask>
        <path fill="#FFF" d="M25.95.1C40.28.1 51.9 11.667 51.9 25.935c0 14.269-11.619 25.836-25.95 25.836C11.618 51.77 0 40.204 0 25.935 0 11.667 11.618.1 25.95.1" mask="url(#b)"/>
        <path fill="#E2FFE2" d="M12.316 39.509c-9.335-9.294-10.07-23.907-2.208-34.04-.87.67-1.709 1.403-2.508 2.198-10.133 10.09-10.133 26.447 0 36.536 10.134 10.09 26.564 10.09 36.698 0a26.103 26.103 0 0 0 2.208-2.497c-10.178 7.829-24.855 7.096-34.19-2.197" mask="url(#b)"/>
        <path fill="#5DB83A" d="M37.235 23.664a2.888 2.888 0 0 1 2.895 2.882 2.888 2.888 0 0 1-2.895 2.882 2.888 2.888 0 0 1-2.895-2.882 2.888 2.888 0 0 1 2.895-2.882M14.665 23.664a2.888 2.888 0 0 1 2.894 2.882 2.888 2.888 0 0 1-2.894 2.882 2.888 2.888 0 0 1-2.895-2.882 2.888 2.888 0 0 1 2.895-2.882M28.94 37.419a3.952 3.952 0 0 1-2.99-1.366 3.953 3.953 0 0 1-2.992 1.366c-2.18 0-3.953-1.766-3.953-3.936a.96.96 0 0 1 .962-.957.96.96 0 0 1 .961.957c0 1.114.911 2.02 2.03 2.02 1.119 0 2.03-.906 2.03-2.02a.96.96 0 0 1 .961-.957.96.96 0 0 1 .962.957c0 1.114.91 2.02 2.03 2.02 1.119 0 2.03-.906 2.03-2.02a.96.96 0 0 1 .96-.957.96.96 0 0 1 .963.957c0 2.17-1.774 3.936-3.953 3.936"/>
        <path fill="#E2FFE2" d="M9.61 31.987a2.53 2.53 0 0 1 2.536 2.525 2.53 2.53 0 0 1-2.536 2.524 2.53 2.53 0 0 1-2.535-2.524 2.53 2.53 0 0 1 2.535-2.525M42.288 31.987a2.53 2.53 0 0 1 2.535 2.525 2.53 2.53 0 0 1-2.535 2.524 2.53 2.53 0 0 1-2.536-2.524 2.53 2.53 0 0 1 2.536-2.525"/>
    </g>
</svg>
